{
    "app-id": "org.gnome.World.Iotas",
    "runtime": "org.gnome.Platform",
    "runtime-version": "master",
    "sdk": "org.gnome.Sdk",
    "tags" : [
        "devel",
        "development",
        "nightly"
    ],
    "command": "iotas",
    "finish-args": [
        "--device=dri",
        "--share=ipc",
        "--socket=fallback-x11",
        "--share=network",
        "--socket=wayland",
        "--talk-name=org.freedesktop.secrets"
    ],
    "cleanup" : [
        "*.a",
        "*.la",
        "/include",
        "/lib/cmake",
        "/lib/pkgconfig",
        "/man",
        "/share/aclocal",
        "/share/gtk-doc",
        "/share/man",
        "/share/pkgconfig"
    ],
    "modules": [
        "python3-requirements.json",
        "katex.json",
        {
            "name" : "pandoc",
            "buildsystem": "simple",
            "build-commands": [
                "cp bin/pandoc /app/bin/pandoc"
            ],
            "sources": [
                {
                    "type": "archive",
                    "url": "https://github.com/jgm/pandoc/releases/download/3.5/pandoc-3.5-linux-amd64.tar.gz",
                    "sha256": "a46b448ad9e7e5bd898a0606a2a67acbf4bc7714b24dc68931e9a47d7b807015",
                    "only-arches": ["x86_64"]
                },
                {
                    "type": "archive",
                    "url": "https://github.com/jgm/pandoc/releases/download/3.5/pandoc-3.5-linux-arm64.tar.gz",
                    "sha256": "1bd96209bb16a0c0890d1f55eac5d4b6faac975bee20bf703df263f0408f2b51",
                    "only-arches": ["aarch64"]
                }
            ]
        },
        {
            "name" : "iotas",
            "buildsystem" : "meson",
            "builddir" : true,
            "config-opts": [
                "-Dprofile=development"
            ],
            "sources" : [
                {
                    "type" : "dir",
                    "path" : "../../"
                }
            ]
        }
    ]
}
