<?xml version="1.0" encoding="UTF-8"?>
<svg height="128px" viewBox="0 0 128 128" width="128px" xmlns="http://www.w3.org/2000/svg" xmlns:xlink="http://www.w3.org/1999/xlink">
    <defs>
        <linearGradient id="a" gradientUnits="userSpaceOnUse" x1="92.999461" x2="100.999461" y1="71.000198" y2="71.000198">
            <stop offset="0" stop-color="#deddda"/>
            <stop offset="0.52" stop-color="#ffffff"/>
            <stop offset="1" stop-color="#bdbdbd"/>
        </linearGradient>
        <filter id="b" height="100%" width="100%" x="0%" y="0%">
            <feColorMatrix in="SourceGraphic" type="matrix" values="0 0 0 0 1 0 0 0 0 1 0 0 0 0 1 0 0 0 1 0"/>
        </filter>
        <mask id="c">
            <g filter="url(#b)">
                <rect fill-opacity="0.1" height="128" width="128"/>
            </g>
        </mask>
        <mask id="d">
            <g filter="url(#b)">
                <rect fill-opacity="0.1" height="128" width="128"/>
            </g>
        </mask>
        <clipPath id="e">
            <rect height="152" width="192"/>
        </clipPath>
        <g id="f" clip-path="url(#e)">
            <path d="m 34 50 v 68 h 70 c 4.433594 0 8 -3.566406 8 -8 v -52 c 0 -4.433594 -3.566406 -8 -8 -8 z m 0 0"/>
        </g>
        <clipPath id="g">
            <rect height="128" width="128"/>
        </clipPath>
        <clipPath id="h">
            <rect height="128" width="128"/>
        </clipPath>
        <mask id="i">
            <g clip-path="url(#h)" filter="url(#b)">
                <g clip-path="url(#g)">
                    <path d="m 24 32 v 78 h 72 c 4.433594 0 8 -3.566406 8 -8 v -62 c 0 -4.433594 -3.566406 -8 -8 -8 z m 0 0" fill="#c64600"/>
                    <path d="m 26 108 h 70 c 6 0 6 -6 6 -6 v -19.949219 l -76 -0.050781 z m 0 0" fill="url(#a)"/>
                    <use mask="url(#d)" transform="matrix(1 0 0 1 -8 -16)" xlink:href="#f"/>
                    <path d="m 24 32 v 68 h 72 c 4.433594 0 8 -3.566406 8 -8 v -52 c 0 -4.433594 -3.566406 -8 -8 -8 z m 0 0" fill="#c64600"/>
                    <path d="m 24 8 v 90 h 72 c 4.433594 0 8 -3.566406 8 -8 v -74 c 0 -4.433594 -3.566406 -8 -8 -8 z m 0 0" fill="#ff7800"/>
                    <path d="m 80 8 h 8 v 90 h -8 z m 0 0" fill="#ed333b"/>
                    <path d="m 80 98 h 8 v 12 h -8 z m 0 0" fill="#a51d2d"/>
                    <path d="m 36 104 h 16 v 20 l -8 -8 l -8 8 z m 0 0" fill="#3584e4"/>
                    <path d="m 36 102 h 16 v 6 h -16 z m 0 0" fill="#62a0ea"/>
                </g>
            </g>
        </mask>
        <mask id="j">
            <g filter="url(#b)">
                <rect fill-opacity="0.8" height="128" width="128"/>
            </g>
        </mask>
        <linearGradient id="k" gradientTransform="matrix(0 0.37 -0.98462 0 295.38501 -30.360001)" gradientUnits="userSpaceOnUse" x1="300" x2="428" y1="235" y2="235">
            <stop offset="0" stop-color="#f9f06b"/>
            <stop offset="1" stop-color="#f5c211"/>
        </linearGradient>
        <clipPath id="l">
            <rect height="128" width="128"/>
        </clipPath>
        <clipPath id="m">
            <rect height="128" width="128"/>
        </clipPath>
    </defs>
    <path d="m 24 32 v 78 h 72 c 4.433594 0 8 -3.566406 8 -8 v -62 c 0 -4.433594 -3.566406 -8 -8 -8 z m 0 0" fill="#c64600"/>
    <path d="m 26 108 h 70 c 6 0 6 -6 6 -6 v -19.949219 l -76 -0.050781 z m 0 0" fill="url(#a)"/>
    <use mask="url(#c)" transform="matrix(1 0 0 1 -8 -16)" xlink:href="#f"/>
    <path d="m 24 32 v 68 h 72 c 4.433594 0 8 -3.566406 8 -8 v -52 c 0 -4.433594 -3.566406 -8 -8 -8 z m 0 0" fill="#c64600"/>
    <path d="m 24 8 v 90 h 72 c 4.433594 0 8 -3.566406 8 -8 v -74 c 0 -4.433594 -3.566406 -8 -8 -8 z m 0 0" fill="#ff7800"/>
    <path d="m 80 8 h 8 v 90 h -8 z m 0 0" fill="#ed333b"/>
    <path d="m 80 98 h 8 v 12 h -8 z m 0 0" fill="#a51d2d"/>
    <path d="m 36 104 h 16 v 20 l -8 -8 l -8 8 z m 0 0" fill="#3584e4"/>
    <path d="m 36 102 h 16 v 6 h -16 z m 0 0" fill="#62a0ea"/>
    <g clip-path="url(#m)" mask="url(#i)">
        <g clip-path="url(#l)" mask="url(#j)">
            <path d="m 128 80.640625 v 47.359375 h -128 v -47.359375 z m 0 0" fill="url(#k)"/>
            <path d="m 13.308594 80.640625 l 47.355468 47.359375 h 21.214844 l -47.359375 -47.359375 z m 42.421875 0 l 47.363281 47.359375 h 21.214844 l -47.363282 -47.359375 z m 42.429687 0 l 29.839844 29.839844 v -21.210938 l -8.628906 -8.628906 z m -98.160156 7.90625 v 21.214844 l 18.238281 18.238281 h 21.214844 z m 0 0"/>
        </g>
    </g>
</svg>
